PUC/PUC_567/PUC/simulation/qsim/cw3.msim.vcd
$comment
	File created using the following command:
		vcd file cw3.msim.vcd -direction
$end
$date
	Fri May  1 16:14:43 2015
$end
$version
	ModelSim Version 10.1e
$end
$timescale
	1ps
$end
$scope module cw3_vlg_vec_tst $end
$var reg 1 ! BT1 $end
$var reg 1 " BT3 $end
$var reg 1 # SW0 $end
$var wire 1 $ bcd0 [3] $end
$var wire 1 % bcd0 [2] $end
$var wire 1 & bcd0 [1] $end
$var wire 1 ' bcd0 [0] $end
$var wire 1 ( bcd1 [3] $end
$var wire 1 ) bcd1 [2] $end
$var wire 1 * bcd1 [1] $end
$var wire 1 + bcd1 [0] $end
$var wire 1 , LED0 [7] $end
$var wire 1 - LED0 [6] $end
$var wire 1 . LED0 [5] $end
$var wire 1 / LED0 [4] $end
$var wire 1 0 LED0 [3] $end
$var wire 1 1 LED0 [2] $end
$var wire 1 2 LED0 [1] $end
$var wire 1 3 LED0 [0] $end
$var wire 1 4 LED1 [7] $end
$var wire 1 5 LED1 [6] $end
$var wire 1 6 LED1 [5] $end
$var wire 1 7 LED1 [4] $end
$var wire 1 8 LED1 [3] $end
$var wire 1 9 LED1 [2] $end
$var wire 1 : LED1 [1] $end
$var wire 1 ; LED1 [0] $end
$var wire 1 < LEDG9 $end
$var wire 1 = sampler $end
$scope module i1 $end
$var wire 1 > gnd $end
$var wire 1 ? vcc $end
$var wire 1 @ unknown $end
$var tri1 1 A devclrn $end
$var tri1 1 B devpor $end
$var tri1 1 C devoe $end
$var wire 1 D LEDG9~output_o $end
$var wire 1 E bcd0[3]~output_o $end
$var wire 1 F bcd0[2]~output_o $end
$var wire 1 G bcd0[1]~output_o $end
$var wire 1 H bcd0[0]~output_o $end
$var wire 1 I bcd1[3]~output_o $end
$var wire 1 J bcd1[2]~output_o $end
$var wire 1 K bcd1[1]~output_o $end
$var wire 1 L bcd1[0]~output_o $end
$var wire 1 M LED0[7]~output_o $end
$var wire 1 N LED0[6]~output_o $end
$var wire 1 O LED0[5]~output_o $end
$var wire 1 P LED0[4]~output_o $end
$var wire 1 Q LED0[3]~output_o $end
$var wire 1 R LED0[2]~output_o $end
$var wire 1 S LED0[1]~output_o $end
$var wire 1 T LED0[0]~output_o $end
$var wire 1 U LED1[7]~output_o $end
$var wire 1 V LED1[6]~output_o $end
$var wire 1 W LED1[5]~output_o $end
$var wire 1 X LED1[4]~output_o $end
$var wire 1 Y LED1[3]~output_o $end
$var wire 1 Z LED1[2]~output_o $end
$var wire 1 [ LED1[1]~output_o $end
$var wire 1 \ LED1[0]~output_o $end
$var wire 1 ] BT1~input_o $end
$var wire 1 ^ BT1~inputclkctrl_outclk $end
$var wire 1 _ SW0~input_o $end
$var wire 1 ` inst3|carry~0_combout $end
$var wire 1 a inst3|temp~11_combout $end
$var wire 1 b BT3~input_o $end
$var wire 1 c BT3~inputclkctrl_outclk $end
$var wire 1 d inst3|temp[1]~4_cout $end
$var wire 1 e inst3|temp[1]~5_combout $end
$var wire 1 f ~GND~combout $end
$var wire 1 g inst3|temp[1]~6 $end
$var wire 1 h inst3|temp[2]~7_combout $end
$var wire 1 i inst3|temp[2]~8 $end
$var wire 1 j inst3|temp[3]~9_combout $end
$var wire 1 k SW0~_wirecell_combout $end
$var wire 1 l inst3|carry~1_combout $end
$var wire 1 m inst3|carry~feeder_combout $end
$var wire 1 n inst3|carry~q $end
$var wire 1 o inst3|carry~clkctrl_outclk $end
$var wire 1 p inst1|temp[3]~11_combout $end
$var wire 1 q inst1|temp~13_combout $end
$var wire 1 r inst1|temp[1]~4_cout $end
$var wire 1 s inst1|temp[1]~5_combout $end
$var wire 1 t inst1|temp[3]~12_combout $end
$var wire 1 u inst1|temp[1]~6 $end
$var wire 1 v inst1|temp[2]~7_combout $end
$var wire 1 w inst1|temp[2]~8 $end
$var wire 1 x inst1|temp[3]~9_combout $end
$var wire 1 y inst|Mux0~0_combout $end
$var wire 1 z inst|Mux1~0_combout $end
$var wire 1 { inst|Mux2~0_combout $end
$var wire 1 | inst|Mux3~0_combout $end
$var wire 1 } inst|Mux4~0_combout $end
$var wire 1 ~ inst|Mux5~0_combout $end
$var wire 1 !! inst|Mux6~0_combout $end
$var wire 1 "! inst7|Mux0~0_combout $end
$var wire 1 #! inst7|Mux1~0_combout $end
$var wire 1 $! inst7|Mux2~0_combout $end
$var wire 1 %! inst7|Mux3~0_combout $end
$var wire 1 &! inst7|Mux4~0_combout $end
$var wire 1 '! inst7|Mux5~0_combout $end
$var wire 1 (! inst7|Mux6~0_combout $end
$var wire 1 )! inst1|temp [3] $end
$var wire 1 *! inst1|temp [2] $end
$var wire 1 +! inst1|temp [1] $end
$var wire 1 ,! inst1|temp [0] $end
$var wire 1 -! inst3|temp [3] $end
$var wire 1 .! inst3|temp [2] $end
$var wire 1 /! inst3|temp [1] $end
$var wire 1 0! inst3|temp [0] $end
$upscope $end
$upscope $end
$enddefinitions $end
#0
$dumpvars
0!
0"
1#
0'
0&
0%
0$
0+
0*
0)
0(
13
12
01
00
0/
0.
0-
0,
1;
1:
09
08
07
06
05
04
0<
x=
0>
1?
x@
1A
1B
1C
0D
0E
0F
0G
0H
0I
0J
0K
0L
0M
0N
0O
0P
0Q
0R
1S
1T
0U
0V
0W
0X
0Y
0Z
1[
1\
0]
0^
1_
1`
1a
0b
0c
0d
0e
0f
1g
0h
0i
0j
0k
0l
0m
0n
0o
1p
1q
0r
0s
0t
1u
0v
0w
0x
0y
0z
0{
0|
0}
0~
0!!
0"!
0#!
0$!
0%!
0&!
0'!
0(!
0,!
0+!
0*!
0)!
00!
0/!
0.!
0-!
$end
#100000
1!
1]
1^
0=
10!
1d
0a
0`
1H
1'
1~
1}
1|
1y
1e
1R
1Q
1P
1M
11
10
1/
1,
#200000
0!
0]
0^
1=
#300000
1!
1]
1^
0=
1/!
00!
1!!
0g
0e
0d
1a
1G
0H
1&
0'
0}
0|
1{
0y
1h
1g
1e
0S
0Q
0P
1O
0M
02
00
0/
1.
0,
0h
#400000
0!
0]
0^
1=
#500000
1!
1]
1^
0=
10!
1d
0a
1H
1'
1}
0{
0g
0e
1Q
0O
10
0.
1h
#600000
0!
0]
0^
1=
#700000
1!
1]
1^
0=
1.!
0/!
00!
1i
0h
1g
1e
0d
1a
1F
0G
0H
1%
0&
0'
0~
1|
1y
1j
0i
1h
0e
0R
1P
1M
01
1/
1,
0j
#800000
0!
0]
0^
1=
#900000
1!
1]
1^
0=
10!
1d
0a
1H
1'
0|
1z
0y
1e
0P
1N
0M
0/
1-
0,
#1000000
0!
0]
0^
1=
#1100000
1!
1]
1^
0=
1/!
00!
0g
0e
0d
1a
1G
0H
1&
0'
0}
1i
0h
1g
1e
0Q
00
1j
0i
1h
0j
#1200000
0!
0]
0^
1=
#1300000
1!
1]
1^
0=
10!
0!!
1d
0a
1H
1'
1~
1}
1|
0z
0g
0e
1S
1R
1Q
1P
0N
12
11
10
1/
0-
1i
0h
1j
#1400000
0!
0]
0^
1=
#1500000
1!
1]
1^
0=
1-!
0.!
0/!
00!
1!!
1l
0j
0i
1h
1`
1g
1e
0d
1E
0F
0G
0H
1$
0%
0&
0'
0~
0}
0|
1m
1j
0l
1a
0h
0e
0S
0R
0Q
0P
02
01
00
0/
0m
#1600000
0!
0]
0^
1=
#1700000
1!
1]
1^
0=
10!
1d
0a
0`
1H
1'
1}
1e
1l
1Q
10
1m
#1800000
0!
0]
0^
1=
#1900000
1!
1]
1^
0=
1n
0-!
00!
1o
0!!
0l
0j
1a
0d
1`
1D
0E
0H
1<
0$
0'
0}
0m
0e
1S
0Q
12
00
1,!
1r
0q
0p
1L
1+
1'!
1&!
1%!
1"!
1s
1Z
1Y
1X
1U
19
18
17
14
#2000000
0!
0]
0^
1=
#2100000
1!
1]
1^
0=
0n
10!
0o
1d
0a
0`
0D
1H
0<
1'
1~
1}
1|
1y
1e
1R
1Q
1P
1M
11
10
1/
1,
#2200000
0!
0]
0^
1=
#2300000
1!
1]
1^
0=
1/!
00!
1!!
0g
0e
0d
1a
1G
0H
1&
0'
0}
0|
1{
0y
1h
1g
1e
0S
0Q
0P
1O
0M
02
00
0/
1.
0,
0h
#2400000
0!
0]
0^
1=
#2500000
1!
1]
1^
0=
10!
1d
0a
1H
1'
1}
0{
0g
0e
1Q
0O
10
0.
1h
#2600000
0!
0]
0^
1=
#2700000
1!
1]
1^
0=
1.!
0/!
00!
1i
0h
1g
1e
0d
1a
1F
0G
0H
1%
0&
0'
0~
1|
1y
1j
0i
1h
0e
0R
1P
1M
01
1/
1,
0j
#2800000
0!
0]
0^
1=
#2900000
1!
1]
1^
0=
10!
1d
0a
1H
1'
0|
1z
0y
1e
0P
1N
0M
0/
1-
0,
#3000000
0!
0]
0^
1=
#3100000
1!
1]
1^
0=
1/!
00!
0g
0e
0d
1a
1G
0H
1&
0'
0}
1i
0h
1g
1e
0Q
00
1j
0i
1h
0j
#3200000
0!
0]
0^
1=
#3300000
1!
1]
1^
0=
10!
0!!
1d
0a
1H
1'
1~
1}
1|
0z
0g
0e
1S
1R
1Q
1P
0N
12
11
10
1/
0-
1i
0h
1j
#3400000
0!
0]
0^
1=
#3500000
1!
1]
1^
0=
1-!
0.!
0/!
00!
1!!
1l
0j
0i
1h
1`
1g
1e
0d
1E
0F
0G
0H
1$
0%
0&
0'
0~
0}
0|
1m
1j
0l
1a
0h
0e
0S
0R
0Q
0P
02
01
00
0/
0m
#3600000
0!
0]
0^
1=
#3700000
1!
1]
1^
0=
10!
1d
0a
0`
1H
1'
1}
1e
1l
1Q
10
1m
#3800000
0!
0]
0^
1=
#3900000
1!
1]
1^
0=
1n
0-!
00!
1o
0!!
0l
0j
1a
0d
1`
1D
0E
0H
1<
0$
0'
0}
0m
0e
1S
0Q
12
00
1+!
0,!
1(!
0u
0s
0r
1q
1K
0L
1*
0+
0&!
0%!
1$!
0"!
1v
1u
1s
0[
0Y
0X
1W
0U
0:
08
07
16
04
0v
#4000000
0!
0]
0^
1=
#4100000
1!
1]
1^
0=
0n
10!
0o
1d
0a
0`
0D
1H
0<
1'
1~
1}
1|
1y
1e
1R
1Q
1P
1M
11
10
1/
1,
#4200000
0!
0]
0^
1=
#4300000
1!
1]
1^
0=
1/!
00!
1!!
0g
0e
0d
1a
1G
0H
1&
0'
0}
0|
1{
0y
1h
1g
1e
0S
0Q
0P
1O
0M
02
00
0/
1.
0,
0h
#4400000
0!
0]
0^
1=
#4500000
1!
1]
1^
0=
10!
1d
0a
1H
1'
1}
0{
0g
0e
1Q
0O
10
0.
1h
#4600000
0!
0]
0^
1=
#4700000
1!
1]
1^
0=
1.!
0/!
00!
1i
0h
1g
1e
0d
1a
1F
0G
0H
1%
0&
0'
0~
1|
1y
1j
0i
1h
0e
0R
1P
1M
01
1/
1,
0j
#4800000
0!
0]
0^
1=
#4900000
1!
1]
1^
0=
10!
1d
0a
1H
1'
0|
1z
0y
1e
0P
1N
0M
0/
1-
0,
#5000000
0!
0]
0^
1=
#5100000
1!
1]
1^
0=
1/!
00!
0g
0e
0d
1a
1G
0H
1&
0'
0}
1i
0h
1g
1e
0Q
00
1j
0i
1h
0j
#5200000
0!
0]
0^
1=
#5300000
1!
1]
1^
0=
10!
0!!
1d
0a
1H
1'
1~
1}
1|
0z
0g
0e
1S
1R
1Q
1P
0N
12
11
10
1/
0-
1i
0h
1j
#5400000
0!
0]
0^
1=
#5500000
1!
1]
1^
0=
1-!
0.!
0/!
00!
1!!
1l
0j
0i
1h
1`
1g
1e
0d
1E
0F
0G
0H
1$
0%
0&
0'
0~
0}
0|
1m
1j
0l
1a
0h
0e
0S
0R
0Q
0P
02
01
00
0/
0m
#5600000
0!
0]
0^
1=
#5700000
1!
1]
1^
0=
10!
1d
0a
0`
1H
1'
1}
1e
1l
1Q
10
1m
#5800000
0!
0]
0^
1=
#5900000
1!
1]
1^
0=
1n
0-!
00!
1o
0!!
0l
0j
1a
0d
1`
1D
0E
0H
1<
0$
0'
0}
0m
0e
1S
0Q
12
00
1,!
1r
0q
1L
1+
1&!
0$!
0u
0s
1Y
0W
18
06
1v
#6000000
0!
0]
0^
1=
#6100000
1!
1]
1^
0=
0n
10!
0o
1d
0a
0`
0D
1H
0<
1'
1~
1}
1|
1y
1e
1R
1Q
1P
1M
11
10
1/
1,
#6200000
0!
0]
0^
1=
#6300000
1!
1]
1^
0=
1/!
00!
1!!
0g
0e
0d
1a
1G
0H
1&
0'
0}
0|
1{
0y
1h
1g
1e
0S
0Q
0P
1O
0M
02
00
0/
1.
0,
0h
#6400000
0!
0]
0^
1=
#6500000
1!
1]
1^
0=
10!
1d
0a
1H
1'
1}
0{
0g
0e
1Q
0O
10
0.
1h
#6600000
0!
0]
0^
1=
#6700000
1!
1]
1^
0=
1.!
0/!
00!
1i
0h
1g
1e
0d
1a
1F
0G
0H
1%
0&
0'
0~
1|
1y
1j
0i
1h
0e
0R
1P
1M
01
1/
1,
0j
#6800000
0!
0]
0^
1=
#6900000
1!
1]
1^
0=
10!
1d
0a
1H
1'
0|
1z
0y
1e
0P
1N
0M
0/
1-
0,
#7000000
0!
0]
0^
1=
#7100000
1!
1]
1^
0=
1/!
00!
0g
0e
0d
1a
1G
0H
1&
0'
0}
1i
0h
1g
1e
0Q
00
1j
0i
1h
0j
#7200000
0!
0]
0^
1=
#7300000
1!
1]
1^
0=
10!
0!!
1d
0a
1H
1'
1~
1}
1|
0z
0g
0e
1S
1R
1Q
1P
0N
12
11
10
1/
0-
1i
0h
1j
#7400000
0!
0]
0^
1=
#7500000
1!
1]
1^
0=
1-!
0.!
0/!
00!
1!!
1l
0j
0i
1h
1`
1g
1e
0d
1E
0F
0G
0H
1$
0%
0&
0'
0~
0}
0|
1m
1j
0l
1a
0h
0e
0S
0R
0Q
0P
02
01
00
0/
0m
#7600000
0!
0]
0^
1=
#7700000
1!
1]
1^
0=
10!
1d
0a
0`
1H
1'
1}
1e
1l
1Q
10
1m
#7800000
0!
0]
0^
1=
#7900000
1!
1]
1^
0=
1n
0-!
00!
1o
0!!
0l
0j
1a
0d
1`
1D
0E
0H
1<
0$
0'
0}
0m
0e
1S
0Q
12
00
1*!
0+!
0,!
1w
0v
1u
1s
0r
1q
1J
0K
0L
1)
0*
0+
0'!
1%!
1"!
1x
0w
1v
0s
0Z
1X
1U
09
17
14
0x
#8000000
0!
0]
0^
1=
#8100000
1!
1]
1^
0=
0n
10!
0o
1d
0a
0`
0D
1H
0<
1'
1~
1}
1|
1y
1e
1R
1Q
1P
1M
11
10
1/
1,
#8200000
0!
0]
0^
1=
#8300000
1!
1]
1^
0=
1/!
00!
1!!
0g
0e
0d
1a
1G
0H
1&
0'
0}
0|
1{
0y
1h
1g
1e
0S
0Q
0P
1O
0M
02
00
0/
1.
0,
0h
#8400000
0!
0]
0^
1=
#8500000
1!
1]
1^
0=
10!
1d
0a
1H
1'
1}
0{
0g
0e
1Q
0O
10
0.
1h
#8600000
0!
0]
0^
1=
#8700000
1!
1]
1^
0=
1.!
0/!
00!
1i
0h
1g
1e
0d
1a
1F
0G
0H
1%
0&
0'
0~
1|
1y
1j
0i
1h
0e
0R
1P
1M
01
1/
1,
0j
#8800000
0!
0]
0^
1=
#8900000
1!
1]
1^
0=
10!
1d
0a
1H
1'
0|
1z
0y
1e
0P
1N
0M
0/
1-
0,
#9000000
0!
0]
0^
1=
#9100000
1!
1]
1^
0=
1/!
00!
0g
0e
0d
1a
1G
0H
1&
0'
0}
1i
0h
1g
1e
0Q
00
1j
0i
1h
0j
#9200000
0!
0]
0^
1=
#9300000
1!
1]
1^
0=
10!
0!!
1d
0a
1H
1'
1~
1}
1|
0z
0g
0e
1S
1R
1Q
1P
0N
12
11
10
1/
0-
1i
0h
1j
#9400000
0!
0]
0^
1=
#9500000
1!
1]
1^
0=
1-!
0.!
0/!
00!
1!!
1l
0j
0i
1h
1`
1g
1e
0d
1E
0F
0G
0H
1$
0%
0&
0'
0~
0}
0|
1m
1j
0l
1a
0h
0e
0S
0R
0Q
0P
02
01
00
0/
0m
#9600000
0!
0]
0^
1=
#9700000
1!
1]
1^
0=
10!
1d
0a
0`
1H
1'
1}
1e
1l
1Q
10
1m
#9800000
0!
0]
0^
1=
#9900000
1!
1]
1^
0=
1n
0-!
00!
1o
0!!
0l
0j
1a
0d
1`
1D
0E
0H
1<
0$
0'
0}
0m
0e
1S
0Q
12
00
1,!
1r
0q
1L
1+
0%!
1#!
0"!
1s
0X
1V
0U
07
15
04
#10000000
0!
0]
0^
1=
#10100000
1!
1]
1^
0=
0n
10!
0o
1d
0a
0`
0D
1H
0<
1'
1~
1}
1|
1y
1e
1R
1Q
1P
1M
11
10
1/
1,
#10200000
0!
0]
0^
1=
#10300000
1!
1]
1^
0=
1/!
00!
1!!
0g
0e
0d
1a
1G
0H
1&
0'
0}
0|
1{
0y
1h
1g
1e
0S
0Q
0P
1O
0M
02
00
0/
1.
0,
0h
#10400000
0!
0]
0^
1=
#10500000
1!
1]
1^
0=
10!
1d
0a
1H
1'
1}
0{
0g
0e
1Q
0O
10
0.
1h
#10600000
0!
0]
0^
1=
#10700000
1!
1]
1^
0=
1.!
0/!
00!
1i
0h
1g
1e
0d
1a
1F
0G
0H
1%
0&
0'
0~
1|
1y
1j
0i
1h
0e
0R
1P
1M
01
1/
1,
0j
#10800000
0!
0]
0^
1=
#10900000
1!
1]
1^
0=
10!
1d
0a
1H
1'
0|
1z
0y
1e
0P
1N
0M
0/
1-
0,
#11000000
0!
0]
0^
1=
#11100000
1!
1]
1^
0=
1/!
00!
0g
0e
0d
1a
1G
0H
1&
0'
0}
1i
0h
1g
1e
0Q
00
1j
0i
1h
0j
#11200000
0!
0]
0^
1=
#11300000
1!
1]
1^
0=
10!
0!!
1d
0a
1H
1'
1~
1}
1|
0z
0g
0e
1S
1R
1Q
1P
0N
12
11
10
1/
0-
1i
0h
1j
#11400000
0!
0]
0^
1=
#11500000
1!
1]
1^
0=
1-!
0.!
0/!
00!
1!!
1l
0j
0i
1h
1`
1g
1e
0d
1E
0F
0G
0H
1$
0%
0&
0'
0~
0}
0|
1m
1j
0l
1a
0h
0e
0S
0R
0Q
0P
02
01
00
0/
0m
#11600000
0!
0]
0^
1=
#11700000
1!
1]
1^
0=
10!
1d
0a
0`
1H
1'
1}
1e
1l
1Q
10
1m
#11800000
0!
0]
0^
1=
#11900000
1!
1]
1^
0=
1n
0-!
00!
1o
0!!
0l
0j
1a
0d
1`
1D
0E
0H
1<
0$
0'
0}
0m
0e
1S
0Q
12
00
1+!
0,!
0u
0s
0r
1q
1K
0L
1*
0+
0&!
1w
0v
1u
1s
0Y
08
1x
0w
1v
0x
#12000000
0!
0]
0^
1=
#12100000
1!
1]
1^
0=
0n
10!
0o
1d
0a
0`
0D
1H
0<
1'
1~
1}
1|
1y
1e
1R
1Q
1P
1M
11
10
1/
1,
#12200000
0!
0]
0^
1=
#12300000
1!
1]
1^
0=
1/!
00!
1!!
0g
0e
0d
1a
1G
0H
1&
0'
0}
0|
1{
0y
1h
1g
1e
0S
0Q
0P
1O
0M
02
00
0/
1.
0,
0h
#12400000
0!
0]
0^
1=
#12500000
1!
1]
1^
0=
10!
1d
0a
1H
1'
1}
0{
0g
0e
1Q
0O
10
0.
1h
#12600000
0!
0]
0^
1=
#12700000
1!
1]
1^
0=
1.!
0/!
00!
1i
0h
1g
1e
0d
1a
1F
0G
0H
1%
0&
0'
0~
1|
1y
1j
0i
1h
0e
0R
1P
1M
01
1/
1,
0j
#12800000
0!
0]
0^
1=
#12900000
1!
1]
1^
0=
10!
1d
0a
1H
1'
0|
1z
0y
1e
0P
1N
0M
0/
1-
0,
#13000000
0!
0]
0^
1=
#13100000
1!
1]
1^
0=
1/!
00!
0g
0e
0d
1a
1G
0H
1&
0'
0}
1i
0h
1g
1e
0Q
00
1j
0i
1h
0j
#13200000
0!
0]
0^
1=
#13300000
1!
1]
1^
0=
10!
0!!
1d
0a
1H
1'
1~
1}
1|
0z
0g
0e
1S
1R
1Q
1P
0N
12
11
10
1/
0-
1i
0h
1j
#13400000
0!
0]
0^
1=
#13500000
1!
1]
1^
0=
1-!
0.!
0/!
00!
1!!
1l
0j
0i
1h
1`
1g
1e
0d
1E
0F
0G
0H
1$
0%
0&
0'
0~
0}
0|
1m
1j
0l
1a
0h
0e
0S
0R
0Q
0P
02
01
00
0/
0m
#13600000
0!
0]
0^
1=
#13700000
1!
1]
1^
0=
10!
1d
0a
0`
1H
1'
1}
1e
1l
1Q
10
1m
#13800000
0!
0]
0^
1=
#13900000
1!
1]
1^
0=
1n
0-!
00!
1o
0!!
0l
0j
1a
0d
1`
1D
0E
0H
1<
0$
0'
0}
0m
0e
1S
0Q
12
00
1,!
0(!
1r
0q
1L
1+
1'!
1&!
1%!
0#!
0u
0s
1[
1Z
1Y
1X
0V
1:
19
18
17
05
1w
0v
1x
#14000000
0!
0]
0^
1=
#14100000
1!
1]
1^
0=
0n
10!
0o
1d
0a
0`
0D
1H
0<
1'
1~
1}
1|
1y
1e
1R
1Q
1P
1M
11
10
1/
1,
#14200000
0!
0]
0^
1=
#14300000
1!
1]
1^
0=
1/!
00!
1!!
0g
0e
0d
1a
1G
0H
1&
0'
0}
0|
1{
0y
1h
1g
1e
0S
0Q
0P
1O
0M
02
00
0/
1.
0,
0h
#14400000
0!
0]
0^
1=
#14500000
1!
1]
1^
0=
10!
1d
0a
1H
1'
1}
0{
0g
0e
1Q
0O
10
0.
1h
#14600000
0!
0]
0^
1=
#14700000
1!
1]
1^
0=
1.!
0/!
00!
1i
0h
1g
1e
0d
1a
1F
0G
0H
1%
0&
0'
0~
1|
1y
1j
0i
1h
0e
0R
1P
1M
01
1/
1,
0j
#14800000
0!
0]
0^
1=
#14900000
1!
1]
1^
0=
10!
1d
0a
1H
1'
0|
1z
0y
1e
0P
1N
0M
0/
1-
0,
#15000000
0!
0]
0^
1=
#15100000
1!
1]
1^
0=
1/!
00!
0g
0e
0d
1a
1G
0H
1&
0'
0}
1i
0h
1g
1e
0Q
00
1j
0i
1h
0j
#15200000
0!
0]
0^
1=
#15300000
1!
1]
1^
0=
10!
0!!
1d
0a
1H
1'
1~
1}
1|
0z
0g
0e
1S
1R
1Q
1P
0N
12
11
10
1/
0-
1i
0h
1j
#15400000
0!
0]
0^
1=
#15500000
1!
1]
1^
0=
1-!
0.!
0/!
00!
1!!
1l
0j
0i
1h
1`
1g
1e
0d
1E
0F
0G
0H
1$
0%
0&
0'
0~
0}
0|
1m
1j
0l
1a
0h
0e
0S
0R
0Q
0P
02
01
00
0/
0m
#15600000
0!
0]
0^
1=
#15700000
1!
1]
1^
0=
10!
1d
0a
0`
1H
1'
1}
1e
1l
1Q
10
1m
#15800000
0!
0]
0^
1=
#15900000
1!
1]
1^
0=
1n
0-!
00!
1o
0!!
0l
0j
1a
0d
1`
1D
0E
0H
1<
0$
0'
0}
0m
0e
1S
0Q
12
00
1)!
0*!
0+!
0,!
1(!
0x
1t
0w
1v
1p
1u
1s
0r
1I
0J
0K
0L
1(
0)
0*
0+
0'!
0&!
0%!
1x
0t
1q
0v
0s
0[
0Z
0Y
0X
0:
09
08
07
#16000000
0!
0]
0^
1=
#16100000
1!
1]
1^
0=
0n
10!
0o
1d
0a
0`
0D
1H
0<
1'
1~
1}
1|
1y
1e
1R
1Q
1P
1M
11
10
1/
1,
#16200000
0!
0]
0^
1=
#16300000
1!
1]
1^
0=
1/!
00!
1!!
0g
0e
0d
1a
1G
0H
1&
0'
0}
0|
1{
0y
1h
1g
1e
0S
0Q
0P
1O
0M
02
00
0/
1.
0,
0h
#16400000
0!
0]
0^
1=
#16500000
1!
1]
1^
0=
10!
1d
0a
1H
1'
1}
0{
0g
0e
1Q
0O
10
0.
1h
#16600000
0!
0]
0^
1=
#16700000
1!
1]
1^
0=
1.!
0/!
00!
1i
0h
1g
1e
0d
1a
1F
0G
0H
1%
0&
0'
0~
1|
1y
1j
0i
1h
0e
0R
1P
1M
01
1/
1,
0j
#16800000
0!
0]
0^
1=
#16900000
1!
1]
1^
0=
10!
1d
0a
1H
1'
0|
1z
0y
1e
0P
1N
0M
0/
1-
0,
#17000000
0!
0]
0^
1=
#17100000
1!
1]
1^
0=
1/!
00!
0g
0e
0d
1a
1G
0H
1&
0'
0}
1i
0h
1g
1e
0Q
00
1j
0i
1h
0j
#17200000
0!
0]
0^
1=
#17300000
1!
1]
1^
0=
10!
0!!
1d
0a
1H
1'
1~
1}
1|
0z
0g
0e
1S
1R
1Q
1P
0N
12
11
10
1/
0-
1i
0h
1j
#17400000
0!
0]
0^
1=
#17500000
1!
1]
1^
0=
1-!
0.!
0/!
00!
1!!
1l
0j
0i
1h
1`
1g
1e
0d
1E
0F
0G
0H
1$
0%
0&
0'
0~
0}
0|
1m
1j
0l
1a
0h
0e
0S
0R
0Q
0P
02
01
00
0/
0m
#17600000
0!
0]
0^
1=
#17700000
1!
1]
1^
0=
10!
1d
0a
0`
1H
1'
1}
1e
1l
1Q
10
1m
#17800000
0!
0]
0^
1=
#17900000
1!
1]
1^
0=
1n
0-!
00!
1o
0!!
0l
0j
1a
0d
1`
1D
0E
0H
1<
0$
0'
0}
0m
0e
1S
0Q
12
00
1,!
1r
0q
0p
1L
1+
1&!
1s
1t
1Y
18
#18000000
0!
0]
0^
1=
#18100000
1!
1]
1^
0=
0n
10!
0o
1d
0a
0`
0D
1H
0<
1'
1~
1}
1|
1y
1e
1R
1Q
1P
1M
11
10
1/
1,
#18200000
0!
0]
0^
1=
#18300000
1!
1]
1^
0=
1/!
00!
1!!
0g
0e
0d
1a
1G
0H
1&
0'
0}
0|
1{
0y
1h
1g
1e
0S
0Q
0P
1O
0M
02
00
0/
1.
0,
0h
#18400000
0!
0]
0^
1=
#18500000
1!
1]
1^
0=
10!
1d
0a
1H
1'
1}
0{
0g
0e
1Q
0O
10
0.
1h
#18600000
0!
0]
0^
1=
#18700000
1!
1]
1^
0=
1.!
0/!
00!
1i
0h
1g
1e
0d
1a
1F
0G
0H
1%
0&
0'
0~
1|
1y
1j
0i
1h
0e
0R
1P
1M
01
1/
1,
0j
#18800000
0!
0]
0^
1=
#18900000
1!
1]
1^
0=
10!
1d
0a
1H
1'
0|
1z
0y
1e
0P
1N
0M
0/
1-
0,
#19000000
0!
0]
0^
1=
#19100000
1!
1]
1^
0=
1/!
00!
0g
0e
0d
1a
1G
0H
1&
0'
0}
1i
0h
1g
1e
0Q
00
1j
0i
1h
0j
#19200000
0!
0]
0^
1=
#19300000
1!
1]
1^
0=
10!
0!!
1d
0a
1H
1'
1~
1}
1|
0z
0g
0e
1S
1R
1Q
1P
0N
12
11
10
1/
0-
1i
0h
1j
#19400000
0!
0]
0^
1=
#19500000
1!
1]
1^
0=
1-!
0.!
0/!
00!
1!!
1l
0j
0i
1h
1`
1g
1e
0d
1E
0F
0G
0H
1$
0%
0&
0'
0~
0}
0|
1m
1j
0l
1a
0h
0e
0S
0R
0Q
0P
02
01
00
0/
0m
#19600000
0!
0]
0^
1=
#19700000
1!
1]
1^
0=
10!
1d
0a
0`
1H
1'
1}
1e
1l
1Q
10
1m
#19800000
0#
0!
0_
0]
0^
1=
0x
1v
0t
0u
0s
0l
1k
0j
1h
0g
0e
1w
0v
0m
1i
0h
1x
1j
#19900000
1!
1]
1^
0=
00!
0d
1a
1`
0H
0'
0}
1g
1e
0Q
00
0i
1h
0j
#20000000
0!
0]
0^
1=
#20100000
1!
1]
1^
0=
0-!
1.!
1/!
10!
0!!
1l
1j
1i
0h
0`
0g
0e
1d
0E
1F
1G
1H
0$
1%
1&
1'
1~
1}
1|
1m
0j
0l
0a
1h
1e
1S
1R
1Q
1P
12
11
10
1/
0m
#20200000
0!
0]
0^
1=
#20300000
1!
1]
1^
0=
00!
1!!
0d
1a
0H
0'
0~
0}
0|
1z
0e
0S
0R
0Q
0P
1N
02
01
00
0/
1-
#20400000
0!
0]
0^
1=
#20500000
1!
1]
1^
0=
0/!
10!
1g
1e
1d
0a
0G
1H
0&
1'
1}
0h
0g
0e
1Q
10
1h
#20600000
0!
0]
0^
1=
#20700000
1!
1]
1^
0=
00!
0d
1a
0H
0'
1|
0z
1y
1g
1e
1P
0N
1M
1/
0-
1,
0h
#20800000
0!
0]
0^
1=
#20900000
1!
1]
1^
0=
0.!
1/!
10!
0i
1h
0g
0e
1d
0a
0F
1G
1H
0%
1&
1'
1~
0|
0y
1j
1i
0h
1e
1R
0P
0M
11
0/
0,
0j
#21000000
0!
0]
0^
1=
#21100000
1!
1]
1^
0=
00!
0d
1a
0H
0'
0}
1{
0e
0Q
1O
00
1.
#21200000
0!
0]
0^
1=
#21300000
1!
1]
1^
0=
0/!
10!
0!!
1g
1e
1d
0a
0G
1H
0&
1'
1}
1|
0{
1y
0i
1h
0g
0e
1S
1Q
1P
0O
1M
12
10
1/
0.
1,
1j
1i
0h
0j
#21400000
0!
0]
0^
1=
#21500000
1!
1]
1^
0=
00!
0d
1a
1`
0H
0'
0~
0}
0|
0y
1g
1e
1l
0R
0Q
0P
0M
01
00
0/
0,
0i
1h
1m
1j
#21600000
0!
0]
0^
1=
#21700000
1!
1]
1^
0=
1n
1-!
10!
1o
1!!
0l
0j
0a
1d
0`
1D
1E
1H
1<
1$
1'
1}
0m
0g
0e
0S
1Q
02
10
1i
0h
1j
0,!
0r
1q
1p
0L
0+
0&!
1u
1s
0Y
08
0w
1v
0x
#21800000
0!
0]
0^
1=
#21900000
1!
1]
1^
0=
0n
00!
0o
0d
1a
1`
0D
0H
0<
0'
0}
1g
1e
0Q
00
0i
1h
0j
#22000000
0!
0]
0^
1=
