PUC/PUC_567/PUC_2/simulation/qsim/cw3.msim.vcd
$comment
	File created using the following command:
		vcd file cw3.msim.vcd -direction
$end
$date
	Sat May  2 15:52:56 2015
$end
$version
	ModelSim Version 10.1e
$end
$timescale
	1ps
$end
$scope module cw3_vlg_vec_tst $end
$var reg 1 ! clk $end
$var reg 1 " DOWN $end
$var reg 1 # UP $end
$var wire 1 $ bcd0 [3] $end
$var wire 1 % bcd0 [2] $end
$var wire 1 & bcd0 [1] $end
$var wire 1 ' bcd0 [0] $end
$var wire 1 ( bcd1 [3] $end
$var wire 1 ) bcd1 [2] $end
$var wire 1 * bcd1 [1] $end
$var wire 1 + bcd1 [0] $end
$var wire 1 , LED0 [7] $end
$var wire 1 - LED0 [6] $end
$var wire 1 . LED0 [5] $end
$var wire 1 / LED0 [4] $end
$var wire 1 0 LED0 [3] $end
$var wire 1 1 LED0 [2] $end
$var wire 1 2 LED0 [1] $end
$var wire 1 3 LED0 [0] $end
$var wire 1 4 LED1 [7] $end
$var wire 1 5 LED1 [6] $end
$var wire 1 6 LED1 [5] $end
$var wire 1 7 LED1 [4] $end
$var wire 1 8 LED1 [3] $end
$var wire 1 9 LED1 [2] $end
$var wire 1 : LED1 [1] $end
$var wire 1 ; LED1 [0] $end
$var wire 1 < LEDG9 $end
$var wire 1 = sampler $end
$scope module i1 $end
$var wire 1 > gnd $end
$var wire 1 ? vcc $end
$var wire 1 @ unknown $end
$var tri1 1 A devclrn $end
$var tri1 1 B devpor $end
$var tri1 1 C devoe $end
$var wire 1 D LEDG9~output_o $end
$var wire 1 E bcd0[3]~output_o $end
$var wire 1 F bcd0[2]~output_o $end
$var wire 1 G bcd0[1]~output_o $end
$var wire 1 H bcd0[0]~output_o $end
$var wire 1 I bcd1[3]~output_o $end
$var wire 1 J bcd1[2]~output_o $end
$var wire 1 K bcd1[1]~output_o $end
$var wire 1 L bcd1[0]~output_o $end
$var wire 1 M LED0[7]~output_o $end
$var wire 1 N LED0[6]~output_o $end
$var wire 1 O LED0[5]~output_o $end
$var wire 1 P LED0[4]~output_o $end
$var wire 1 Q LED0[3]~output_o $end
$var wire 1 R LED0[2]~output_o $end
$var wire 1 S LED0[1]~output_o $end
$var wire 1 T LED0[0]~output_o $end
$var wire 1 U LED1[7]~output_o $end
$var wire 1 V LED1[6]~output_o $end
$var wire 1 W LED1[5]~output_o $end
$var wire 1 X LED1[4]~output_o $end
$var wire 1 Y LED1[3]~output_o $end
$var wire 1 Z LED1[2]~output_o $end
$var wire 1 [ LED1[1]~output_o $end
$var wire 1 \ LED1[0]~output_o $end
$var wire 1 ] clk~input_o $end
$var wire 1 ^ clk~inputclkctrl_outclk $end
$var wire 1 _ DOWN~input_o $end
$var wire 1 ` UP~input_o $end
$var wire 1 a inst6|up1~q $end
$var wire 1 b inst6|process_0~1_combout $end
$var wire 1 c inst6|dw1~feeder_combout $end
$var wire 1 d inst6|dw1~q $end
$var wire 1 e inst6|process_0~0_combout $end
$var wire 1 f inst6|LessThan0~0_combout $end
$var wire 1 g inst6|temp[3]~11_combout $end
$var wire 1 h inst6|temp[0]~13_combout $end
$var wire 1 i inst6|temp[1]~4_cout $end
$var wire 1 j inst6|temp[1]~5_combout $end
$var wire 1 k ~GND~combout $end
$var wire 1 l inst6|temp[3]~12_combout $end
$var wire 1 m inst6|temp[1]~6 $end
$var wire 1 n inst6|temp[2]~7_combout $end
$var wire 1 o inst6|temp[2]~8 $end
$var wire 1 p inst6|temp[3]~9_combout $end
$var wire 1 q inst6|carry~0_combout $end
$var wire 1 r inst6|carry~1_combout $end
$var wire 1 s inst6|carry~q $end
$var wire 1 t inst6|carry~clkctrl_outclk $end
$var wire 1 u inst6|dir~0_combout $end
$var wire 1 v inst6|dir~q $end
$var wire 1 w inst1|temp[3]~11_combout $end
$var wire 1 x inst1|temp~13_combout $end
$var wire 1 y inst1|temp[1]~4_cout $end
$var wire 1 z inst1|temp[1]~5_combout $end
$var wire 1 { inst1|temp[3]~12_combout $end
$var wire 1 | inst1|temp[1]~6 $end
$var wire 1 } inst1|temp[2]~7_combout $end
$var wire 1 ~ inst1|temp[2]~8 $end
$var wire 1 !! inst1|temp[3]~9_combout $end
$var wire 1 "! inst6|dir~_wirecell_combout $end
$var wire 1 #! inst|Mux0~0_combout $end
$var wire 1 $! inst|Mux1~0_combout $end
$var wire 1 %! inst|Mux2~0_combout $end
$var wire 1 &! inst|Mux3~0_combout $end
$var wire 1 '! inst|Mux4~0_combout $end
$var wire 1 (! inst|Mux5~0_combout $end
$var wire 1 )! inst|Mux6~0_combout $end
$var wire 1 *! inst7|Mux0~0_combout $end
$var wire 1 +! inst7|Mux1~0_combout $end
$var wire 1 ,! inst7|Mux2~0_combout $end
$var wire 1 -! inst7|Mux3~0_combout $end
$var wire 1 .! inst7|Mux4~0_combout $end
$var wire 1 /! inst7|Mux5~0_combout $end
$var wire 1 0! inst7|Mux6~0_combout $end
$var wire 1 1! inst1|temp [3] $end
$var wire 1 2! inst1|temp [2] $end
$var wire 1 3! inst1|temp [1] $end
$var wire 1 4! inst1|temp [0] $end
$var wire 1 5! inst6|temp [3] $end
$var wire 1 6! inst6|temp [2] $end
$var wire 1 7! inst6|temp [1] $end
$var wire 1 8! inst6|temp [0] $end
$upscope $end
$upscope $end
$enddefinitions $end
#0
$dumpvars
0!
0"
1#
0'
0&
0%
0$
0+
0*
0)
0(
13
12
01
00
0/
0.
0-
0,
1;
1:
09
08
07
06
05
04
0<
x=
0>
1?
x@
1A
1B
1C
0D
0E
0F
0G
0H
0I
0J
0K
0L
0M
0N
0O
0P
0Q
0R
1S
1T
0U
0V
0W
0X
0Y
0Z
1[
1\
0]
0^
0_
1`
0a
0b
0c
0d
0e
1f
0g
1h
0i
0j
0k
1l
1m
0n
0o
0p
0q
0r
0s
0t
1u
0v
1w
1x
0y
1z
1{
1|
1}
0~
1!!
1"!
0#!
0$!
0%!
0&!
0'!
0(!
0)!
0*!
0+!
0,!
0-!
0.!
0/!
00!
04!
03!
02!
01!
08!
07!
06!
05!
$end
#300000
1!
1]
1^
0=
1v
1a
18!
0"!
0!!
0}
0{
0z
0l
1b
1i
0h
0f
1H
1'
1(!
1'!
1&!
1#!
1p
1n
0m
1h
1R
1Q
1P
1M
11
10
1/
1,
1o
0n
0p
#600000
0!
0]
0^
1=
#900000
1!
1]
1^
0=
#1200000
0!
0]
0^
1=
#1500000
1!
1]
1^
0=
#1800000
0!
0]
0^
1=
#2100000
1!
1]
1^
0=
#2400000
0!
0]
0^
1=
#2560000
0#
0`
0=
#2700000
1!
1]
1^
1=
0a
#3000000
0!
0]
0^
0=
#3300000
1!
1]
1^
1=
#3600000
0!
0]
0^
0=
#3900000
1!
1]
1^
1=
#4200000
0!
0]
0^
0=
#4480000
1#
1`
1=
1l
0b
1p
0o
1n
1m
1j
0h
0p
0n
#4500000
1!
1]
1^
0=
1a
17!
08!
0l
1b
1)!
0m
0j
0i
1h
1G
0H
1&
0'
0'!
0&!
1%!
0#!
1p
1o
0h
0S
0Q
0P
1O
0M
02
00
0/
1.
0,
0p
#4800000
0!
0]
0^
1=
#5100000
1!
1]
1^
0=
#5400000
0!
0]
0^
1=
#5700000
1!
1]
1^
0=
#6000000
0!
0]
0^
1=
#6300000
1!
1]
1^
0=
#6400000
0#
0`
1=
#6600000
0!
0]
0^
0=
#6900000
1!
1]
1^
1=
0a
#7200000
0!
0]
0^
0=
#7500000
1!
1]
1^
1=
#7800000
0!
0]
0^
0=
#8100000
1!
1]
1^
1=
#8320000
1#
1`
0=
1l
0b
1p
0o
1n
1m
1j
1h
0p
0n
#8400000
0!
0]
0^
1=
#8700000
1!
1]
1^
0=
1a
18!
0l
1b
1i
0h
1H
1'
1'!
0%!
1p
1n
0m
1h
1Q
0O
10
0.
1o
0n
0p
#9000000
0!
0]
0^
1=
#9300000
1!
1]
1^
0=
#9600000
0!
0]
0^
1=
#9900000
1!
1]
1^
0=
#10200000
0!
0]
0^
1=
#10500000
1!
1]
1^
0=
#10800000
0!
0]
0^
1=
#10880000
0#
0`
0=
#11100000
1!
1]
1^
1=
0a
#11400000
0!
0]
0^
0=
#11700000
1!
1]
1^
1=
#12000000
0!
0]
0^
0=
#12300000
1!
1]
1^
1=
#12600000
0!
0]
0^
0=
#12800000
1#
1`
1=
1l
0b
1p
0o
1n
0j
0h
0p
#12900000
1!
1]
1^
0=
1a
16!
07!
08!
0l
1b
1o
0n
1m
1j
0i
1h
1F
0G
0H
1%
0&
0'
0(!
1&!
1#!
0h
0R
1P
1M
01
1/
1,
#13200000
0!
0]
0^
1=
#13500000
1!
1]
1^
0=
#13800000
0!
0]
0^
1=
#14080000
0#
0`
0=
#14100000
1!
1]
1^
1=
0a
#14400000
0!
0]
0^
0=
#14700000
1!
1]
1^
1=
#14720000
1"
1_
0=
1l
1e
1c
0u
1h
#15000000
0!
0]
0^
1=
#15300000
1!
1]
1^
0=
0v
1d
06!
17!
18!
1"!
1!!
1}
1{
1z
0l
0e
0o
1n
0m
0j
1i
0h
0F
1G
1H
0%
1&
1'
1(!
0&!
0#!
1h
1p
1o
0n
1j
1R
0P
0M
11
0/
0,
0p
#15600000
0!
0]
0^
1=
#15900000
1!
1]
1^
0=
#16200000
0!
0]
0^
1=
#16500000
1!
1]
1^
0=
#16800000
0!
0]
0^
1=
#17100000
1!
1]
1^
0=
#17280000
0"
0_
1=
0c
#17400000
0!
0]
0^
0=
#17700000
1!
1]
1^
1=
0d
#18000000
0!
0]
0^
0=
#18300000
1!
1]
1^
1=
#18600000
0!
0]
0^
0=
#18900000
1!
1]
1^
1=
#19200000
1"
0!
1_
0]
0^
0=
1l
1e
1c
0h
#19500000
1!
1]
1^
1=
1d
08!
0l
0e
0i
1h
0H
0'
0'!
1%!
0h
0j
0Q
1O
00
1.
#19800000
0!
0]
0^
0=
#20100000
1!
1]
1^
1=
#20400000
0!
0]
0^
0=
#20700000
1!
1]
1^
1=
#21000000
0!
0]
0^
0=
#21300000
1!
1]
1^
1=
#21600000
0!
0]
0^
0=
#21900000
1!
1]
1^
1=
#22200000
0!
0]
0^
0=
#22400000
0"
0_
1=
0c
#22500000
1!
1]
1^
0=
0d
#22800000
0!
0]
0^
1=
#23100000
1!
1]
1^
0=
#23400000
0!
0]
0^
1=
#23700000
1!
1]
1^
0=
#24000000
0!
0]
0^
1=
#24300000
1!
1]
1^
0=
#24320000
1#
1"
1`
1_
1=
1c
#24600000
0!
0]
0^
0=
#24900000
1!
1]
1^
1=
1d
1a
#25200000
0!
0]
0^
0=
#25500000
1!
1]
1^
1=
#25800000
0!
0]
0^
0=
#26100000
1!
1]
1^
1=
#26400000
0!
0]
0^
0=
#26700000
1!
1]
1^
1=
#27000000
0!
0]
0^
0=
#27300000
1!
1]
1^
1=
#27600000
0!
0]
0^
0=
#27900000
1!
1]
1^
1=
#28160000
0#
0"
0`
0_
0=
0c
#28200000
0!
0]
0^
1=
#28500000
1!
1]
1^
0=
0d
0a
#28800000
0!
0]
0^
1=
#29100000
1!
1]
1^
0=
#29400000
0!
0]
0^
1=
#29700000
1!
1]
1^
0=
#30000000
0!
0]
0^
1=
#30300000
1!
1]
1^
0=
#30600000
0!
0]
0^
1=
#30720000
1#
1`
0=
1l
0b
1u
1p
0o
1n
1m
1j
1h
0p
0n
#30900000
1!
1]
1^
1=
1v
1a
18!
0"!
0!!
0}
0{
0z
0l
1b
1i
0h
1H
1'
1'!
0%!
1p
1n
0m
1h
1Q
0O
10
0.
1o
0n
0p
#31200000
0!
0]
0^
0=
#31500000
1!
1]
1^
1=
#31800000
0!
0]
0^
0=
#32100000
1!
1]
1^
1=
#32400000
0!
0]
0^
0=
#32700000
1!
1]
1^
1=
#33000000
0!
0]
0^
0=
#33300000
1!
1]
1^
1=
#33600000
0!
0]
0^
0=
#33900000
1!
1]
1^
1=
#34200000
0!
0]
0^
0=
#34500000
1!
1]
1^
1=
#34560000
0#
0`
0=
#34800000
0!
0]
0^
1=
#35100000
1!
1]
1^
0=
0a
#35200000
1"
1_
1=
1l
1e
1c
0u
0h
#35400000
0!
0]
0^
0=
#35700000
1!
1]
1^
1=
0v
1d
08!
1"!
1!!
1}
1{
1z
0l
0e
0i
1h
0H
0'
0'!
1%!
0h
0j
0Q
1O
00
1.
#36000000
0!
0]
0^
0=
#36300000
1!
1]
1^
1=
#36600000
0!
0]
0^
0=
#36900000
1!
1]
1^
1=
#37120000
0"
0_
0=
0c
#37200000
0!
0]
0^
1=
#37500000
1!
1]
1^
0=
0d
#37800000
0!
0]
0^
1=
#38100000
1!
1]
1^
0=
#38400000
0!
0]
0^
1=
#38700000
1!
1]
1^
0=
#39000000
0!
0]
0^
1=
#39040000
1"
1_
0=
1l
1e
1c
1h
#39300000
1!
1]
1^
1=
1d
07!
18!
0l
0e
0)!
1m
1j
1i
0h
0G
1H
0&
1'
1'!
1&!
0%!
1#!
1h
0o
1n
0m
0j
1S
1Q
1P
0O
1M
12
10
1/
0.
1,
1p
1o
0n
0p
#39600000
0!
0]
0^
0=
#39900000
1!
1]
1^
1=
#40200000
0!
0]
0^
0=
#40500000
1!
1]
1^
1=
#40800000
0!
0]
0^
0=
#40960000
0"
0_
1=
0c
#41100000
1!
1]
1^
0=
0d
#41400000
0!
0]
0^
1=
#41700000
1!
1]
1^
0=
#42000000
0!
0]
0^
1=
#42240000
1"
1_
0=
1l
1e
1c
0h
#42300000
1!
1]
1^
1=
1d
08!
0l
0e
0i
1h
1f
0H
0'
0(!
0'!
0&!
0#!
0h
1m
1j
1g
0R
0Q
0P
0M
01
00
0/
0,
0o
1n
1p
#42600000
0!
0]
0^
0=
#42900000
1!
1]
1^
1=
#43200000
0!
0]
0^
0=
#43500000
1!
1]
1^
1=
#43800000
0!
0]
0^
0=
#44100000
1!
1]
1^
1=
#44160000
0"
0_
0=
0c
#44400000
0!
0]
0^
1=
#44700000
1!
1]
1^
0=
0d
#45000000
0!
0]
0^
1=
#45300000
1!
1]
1^
0=
#45600000
0!
0]
0^
1=
#45900000
1!
1]
1^
0=
#46080000
1"
1_
1=
1l
1e
1c
1q
1h
1r
#46200000
0!
0]
0^
0=
#46500000
1!
1]
1^
1=
1d
1s
15!
18!
1t
0l
0e
0q
1)!
0p
0g
1i
0f
1D
1E
1H
1<
1$
1'
1'!
1q
0r
0m
0j
0S
1Q
02
10
1r
1o
0n
1p
11!
14!
10!
0!!
0{
0x
1y
0w
1I
1L
1(
1+
1.!
0|
0z
0[
1Y
0:
18
1~
0}
1!!
#46800000
0!
0]
0^
0=
#47100000
1!
1]
1^
1=
#47400000
0!
0]
0^
0=
#47700000
1!
1]
1^
1=
#48000000
0"
0!
0_
0]
0^
0=
0c
#48300000
1!
1]
1^
1=
0d
#48600000
0!
0]
0^
0=
#48900000
1!
1]
1^
1=
#49200000
0!
0]
0^
0=
#49500000
1!
1]
1^
1=
#49800000
0!
0]
0^
0=
#49920000
1"
1_
1=
1l
1e
1c
0q
0h
0r
#50100000
1!
1]
1^
0=
1d
0s
08!
0t
0l
0e
0i
1h
1f
0D
0H
0<
0'
0'!
0h
1m
1j
0Q
00
0o
1n
0p
#50400000
0!
0]
0^
1=
#50700000
1!
1]
1^
0=
#51000000
0!
0]
0^
1=
#51300000
1!
1]
1^
0=
#51600000
0!
0]
0^
1=
#51900000
1!
1]
1^
0=
#52200000
0!
0]
0^
1=
#52480000
0"
0_
0=
0c
#52500000
1!
1]
1^
1=
0d
#52800000
0!
0]
0^
0=
#53100000
1!
1]
1^
1=
#53400000
0!
0]
0^
0=
#53700000
1!
1]
1^
1=
#53760000
1"
1_
0=
1l
1e
1c
1h
#54000000
0!
0]
0^
1=
#54300000
1!
1]
1^
0=
1d
05!
16!
17!
18!
0l
0e
0)!
1q
1p
1g
1o
0n
0f
0m
0j
1i
0h
0E
1F
1G
1H
0$
1%
1&
1'
1(!
1'!
1&!
0q
1h
1r
0p
0g
1n
1j
1S
1R
1Q
1P
12
11
10
1/
0r
#54600000
0!
0]
0^
1=
#54900000
1!
1]
1^
0=
#55200000
0!
0]
0^
1=
#55500000
1!
1]
1^
0=
#55680000
0"
0_
1=
0c
#55800000
0!
0]
0^
0=
#56100000
1!
1]
1^
1=
0d
#56320000
1#
1`
0=
1l
0b
1u
1p
0n
0j
0h
#56400000
0!
0]
0^
1=
#56700000
1!
1]
1^
0=
1v
1a
15!
06!
07!
08!
0"!
0!!
0~
1}
1{
1|
1z
0l
1b
1)!
1r
0p
1g
0o
1n
1f
1m
1j
0i
1h
1E
0F
0G
0H
1$
0%
0&
0'
0(!
0'!
0&!
1!!
0}
0r
0h
0g
0S
0R
0Q
0P
02
01
00
0/
#57000000
0!
0]
0^
1=
#57300000
1!
1]
1^
0=
#57600000
0!
0]
0^
1=
#57900000
1!
1]
1^
0=
#58200000
0!
0]
0^
1=
#58500000
1!
1]
1^
0=
#58800000
0!
0]
0^
1=
#59100000
1!
1]
1^
0=
#59400000
0!
0]
0^
1=
#59520000
0#
0`
0=
#59700000
1!
1]
1^
1=
0a
#60000000
0!
0]
0^
0=
#60300000
1!
1]
1^
1=
#60600000
0!
0]
0^
0=
#60900000
1!
1]
1^
1=
#61200000
0!
0]
0^
0=
#61500000
1!
1]
1^
1=
#61800000
0!
0]
0^
0=
#62100000
1!
1]
1^
1=
#62400000
0!
0]
0^
0=
#62700000
1!
1]
1^
1=
#63000000
0!
0]
0^
0=
#63300000
1!
1]
1^
1=
#63600000
0!
0]
0^
0=
#63900000
1!
1]
1^
1=
#64200000
0!
0]
0^
0=
#64500000
1!
1]
1^
1=
#64800000
0!
0]
0^
0=
#65100000
1!
1]
1^
1=
#65400000
0!
0]
0^
0=
#65700000
1!
1]
1^
1=
#66000000
0!
0]
0^
0=
#66300000
1!
1]
1^
1=
#66600000
0!
0]
0^
0=
#66900000
1!
1]
1^
1=
#67200000
0!
0]
0^
0=
#67500000
1!
1]
1^
1=
#67800000
0!
0]
0^
0=
#68100000
1!
1]
1^
1=
#68400000
0!
0]
0^
0=
#68700000
1!
1]
1^
1=
#69000000
0!
0]
0^
0=
#69300000
1!
1]
1^
1=
#69600000
0!
0]
0^
0=
#69900000
1!
1]
1^
1=
#70200000
0!
0]
0^
0=
#70500000
1!
1]
1^
1=
#70800000
0!
0]
0^
0=
#71100000
1!
1]
1^
1=
#71400000
0!
0]
0^
0=
#71700000
1!
1]
1^
1=
#72000000
0!
0]
0^
0=
#72300000
1!
1]
1^
1=
#72600000
0!
0]
0^
0=
#72900000
1!
1]
1^
1=
#73200000
0!
0]
0^
0=
#73500000
1!
1]
1^
1=
#73800000
0!
0]
0^
0=
#74100000
1!
1]
1^
1=
#74400000
0!
0]
0^
0=
#74700000
1!
1]
1^
1=
#75000000
0!
0]
0^
0=
#75300000
1!
1]
1^
1=
#75600000
0!
0]
0^
0=
#75900000
1!
1]
1^
1=
#76200000
0!
0]
0^
0=
#76500000
1!
1]
1^
1=
#76800000
0!
0]
0^
0=
#77100000
1!
1]
1^
1=
#77400000
0!
0]
0^
0=
#77700000
1!
1]
1^
1=
#78000000
0!
0]
0^
0=
#78300000
1!
1]
1^
1=
#78600000
0!
0]
0^
0=
#78900000
1!
1]
1^
1=
#79200000
0!
0]
0^
0=
#79500000
1!
1]
1^
1=
#79800000
0!
0]
0^
0=
#80100000
1!
1]
1^
1=
#80400000
0!
0]
0^
0=
#80700000
1!
1]
1^
1=
#81000000
0!
0]
0^
0=
#81300000
1!
1]
1^
1=
#81600000
0!
0]
0^
0=
#81900000
1!
1]
1^
1=
#82200000
0!
0]
0^
0=
#82500000
1!
1]
1^
1=
#82800000
0!
0]
0^
0=
#83100000
1!
1]
1^
1=
#83400000
0!
0]
0^
0=
#83700000
1!
1]
1^
1=
#84000000
0!
0]
0^
0=
#84300000
1!
1]
1^
1=
#84600000
0!
0]
0^
0=
#84900000
1!
1]
1^
1=
#85200000
0!
0]
0^
0=
#85500000
1!
1]
1^
1=
#85800000
0!
0]
0^
0=
#86100000
1!
1]
1^
1=
#86400000
0!
0]
0^
0=
#86700000
1!
1]
1^
1=
#87000000
0!
0]
0^
0=
#87300000
1!
1]
1^
1=
#87600000
0!
0]
0^
0=
#87900000
1!
1]
1^
1=
#88200000
0!
0]
0^
0=
#88500000
1!
1]
1^
1=
#88800000
0!
0]
0^
0=
#89100000
1!
1]
1^
1=
#89400000
0!
0]
0^
0=
#89700000
1!
1]
1^
1=
#90000000
0!
0]
0^
0=
#90300000
1!
1]
1^
1=
#90600000
0!
0]
0^
0=
#90900000
1!
1]
1^
1=
#91200000
0!
0]
0^
0=
#91500000
1!
1]
1^
1=
#91800000
0!
0]
0^
0=
#92100000
1!
1]
1^
1=
#92400000
0!
0]
0^
0=
#92700000
1!
1]
1^
1=
#93000000
0!
0]
0^
0=
#93300000
1!
1]
1^
1=
#93600000
0!
0]
0^
0=
#93900000
1!
1]
1^
1=
#94200000
0!
0]
0^
0=
#94500000
1!
1]
1^
1=
#94800000
0!
0]
0^
0=
#95100000
1!
1]
1^
1=
#95400000
0!
0]
0^
0=
#95700000
1!
1]
1^
1=
#96000000
0!
0]
0^
0=
#96300000
1!
1]
1^
1=
#96600000
0!
0]
0^
0=
#96900000
1!
1]
1^
1=
#97200000
0!
0]
0^
0=
#97500000
1!
1]
1^
1=
#97800000
0!
0]
0^
0=
#98100000
1!
1]
1^
1=
#98400000
0!
0]
0^
0=
#98700000
1!
1]
1^
1=
#99000000
0!
0]
0^
0=
#99300000
1!
1]
1^
1=
#99600000
0!
0]
0^
0=
#99900000
1!
1]
1^
1=
